…
If you have succeeded, you should have a custom reference table for your sgRNA library. Hooray! If you're curious what these files look like, you can read them in and check there contents with the following commands. Note that three files have been written. One has all possiple guides, one is your unambiguously mapped sub-collection, and another is a set of ambiguously mapped guides (problems to be delt with at a later time?).

``` r
sgRNA <- read_csv('data/guide-reference/CRISPRa-v2-human-29-top5-h1-h2-h3-h4-h5-h6-h7.csv')
sgRNA_ambiguous <- read_csv('data/guide-reference/CRISPRa-v2-human-29-top5-h1-h2-h3-h4-h5-h6-h7-ambiguous.csv')
# Let's have a look at each table. Also try clicking on the data set in the "Environment" panel in Rstudio
sgRNA
```

    ## # A tibble: 98,177 × 8
    ##     gene             sequence                          fwd
    ##    <chr>                <chr>                        <chr>
    ## 1   A1BG GAAGACAGGGAAGATGAAGC AAGACAGGGAAGATGAAGCGTTTAAGAG
    ## 2   A1BG GAGCAGCTCCAGGTAGAGTG AGCAGCTCCAGGTAGAGTGGTTTAAGAG
    ## 3   A1BG GCAGGGCCCCCATGGGGTCA CAGGGCCCCCATGGGGTCAGTTTAAGAG
    ## 4   A1BG GCGCGCCTGCGCCTCAGCCC CGCGCCTGCGCCTCAGCCCGTTTAAGAG
    ## 5   A1BG GCTGCCCCCGCCTTCCGGGA CTGCCCCCGCCTTCCGGGAGTTTAAGAG
    ## 6   A1BG GGGCAAAGGGTGAACTTCTG GGCAAAGGGTGAACTTCTGGTTTAAGAG
    ## 7   A1BG GGGGACACTCACGTGTGGCG GGGACACTCACGTGTGGCGGTTTAAGAG
    ## 8   A1BG GGTGCGGGGACACTCACGTG GTGCGGGGACACTCACGTGGTTTAAGAG
    ## 9   A1BG GTGGGCGCAGAGGGCTCCTC TGGGCGCAGAGGGCTCCTCGTTTAAGAG
    ## 10  A1BG GTGTCCTTCCCGGAAGGCGG TGTCCTTCCCGGAAGGCGGGTTTAAGAG
    ## # ... with 98,167 more rows, and 5 more variables: rev <chr>, id <chr>,
    ## #   sublibrary <chr>, transcripts <chr>, sublibrary_name <chr>

``` r
sgRNA_ambiguous
```

    ## # A tibble: 6,307 × 8
    ##                              id sublibrary
    ##                           <chr>      <chr>
    ## 1     NUSAP1_-_41624953.23-P1P2    h2_top5
    ## 2       OIP5_-_41624953.23-P1P2    h5_top5
    ## 3       DCAF8_+_160255023.23-P1    h3_top5
    ## 4     PEX19_+_160255023.23-P1P2    h3_top5
    ## 5     LRRC49_+_71184970.23-P1P2    h4_top5
    ## 6     THAP10_+_71184970.23-P1P2    h5_top5
    ## 7        ACIN1_+_23564543.23-P1    h3_top5
    ## 8  C14orf119_+_23564543.23-P1P2    h4_top5
    ## 9        PSMB9_+_32821773.23-P1    h3_top5
    ## 10      TAP1_+_32821773.23-P1P2    h1_top5
    ## # ... with 6,297 more rows, and 6 more variables: sublibrary_name <chr>,
    ## #   gene <chr>, transcripts <chr>, sequence <chr>, fwd <chr>, rev <chr>
…
